tidyr
…
---

## Ejemplo modelización

- En este ejemplo tenemos 6 variables: país, continente, año, esperanza de vida, población, PIB per cápita

```r
gapminder
## # A tibble: 1,704 x 6
##    country     continent  year lifeExp      pop gdpPercap
##    <fct>       <fct>     <int>   <dbl>    <int>     <dbl>
##  1 Afghanistan Asia       1952    28.8  8425333      779.
##  2 Afghanistan Asia       1957    30.3  9240934      821.
##  3 Afghanistan Asia       1962    32.0 10267083      853.
##  4 Afghanistan Asia       1967    34.0 11537966      836.
##  5 Afghanistan Asia       1972    36.1 13079460      740.
##  6 Afghanistan Asia       1977    38.4 14880372      786.
##  7 Afghanistan Asia       1982    39.9 12881816      978.
##  8 Afghanistan Asia       1987    40.8 13867957      852.
##  9 Afghanistan Asia       1992    41.7 16317921      649.
## 10 Afghanistan Asia       1997    41.8 22227415      635.
## # ... with 1,694 more rows
```
…
---

## Ejemplo

```r
separate(economics, date, into = c("year", "month", "day"), sep = "-", convert = TRUE)
## # A tibble: 574 x 8
##     year month   day   pce    pop psavert uempmed unemploy
##    <int> <int> <int> <dbl>  <dbl>   <dbl>   <dbl>    <dbl>
##  1  1967     7     1  507. 198712    12.6     4.5     2944
##  2  1967     8     1  510. 198911    12.6     4.7     2945
##  3  1967     9     1  516. 199113    11.9     4.6     2958
##  4  1967    10     1  512. 199311    12.9     4.9     3143
##  5  1967    11     1  517. 199498    12.8     4.7     3066
##  6  1967    12     1  525. 199657    11.8     4.8     3018
##  7  1968     1     1  531. 199808    11.7     5.1     2878
##  8  1968     2     1  534. 199920    12.3     4.5     3001
##  9  1968     3     1  544. 200056    11.7     4.1     2877
## 10  1968     4     1  544  200208    12.3     4.6     2709
## # ... with 564 more rows
```

---

## unite

- Una única variable que está codificada en varias columnas

```r
unite(mpg, make, manufacturer, model, sep = "_")
## # A tibble: 234 x 10
##    make        displ  year   cyl trans    drv     cty   hwy fl    class 
##    <chr>       <dbl> <int> <int> <chr>    <chr> <int> <int> <chr> <chr> 
##  1 audi_a4       1.8  1999     4 auto(l5) f        18    29 p     compa~
##  2 audi_a4       1.8  1999     4 manual(~ f        21    29 p     compa~
##  3 audi_a4       2    2008     4 manual(~ f        20    31 p     compa~
##  4 audi_a4       2    2008     4 auto(av) f        21    30 p     compa~
##  5 audi_a4       2.8  1999     6 auto(l5) f        16    26 p     compa~
##  6 audi_a4       2.8  1999     6 manual(~ f        18    26 p     compa~
##  7 audi_a4       3.1  2008     6 auto(av) f        18    27 p     compa~
##  8 audi_a4 qu~   1.8  1999     4 manual(~ 4        18    26 p     compa~
##  9 audi_a4 qu~   1.8  1999     4 auto(l5) 4        16    25 p     compa~
## 10 audi_a4 qu~   2    2008     4 manual(~ 4        20    28 p     compa~
## # ... with 224 more rows
```

---

## Ejemplo

```r
storms %>%
  unite(date, year, month, day, sep = "-", remove = FALSE, na.rm = TRUE) %>%
  select(date, year, month, day)
## # A tibble: 10,010 x 4
##    date       year month   day
##    <chr>     <dbl> <dbl> <int>
##  1 1975-6-27  1975     6    27
##  2 1975-6-27  1975     6    27
##  3 1975-6-27  1975     6    27
##  4 1975-6-27  1975     6    27
##  5 1975-6-28  1975     6    28
##  6 1975-6-28  1975     6    28
##  7 1975-6-28  1975     6    28
##  8 1975-6-28  1975     6    28
##  9 1975-6-29  1975     6    29
## 10 1975-6-29  1975     6    29
## # ... with 10,000 more rows
```
…
