readr
…
```r
worldcup <- read_tsv('../data/worldcupplayerinfo_20140701.tsv')
```

---

```r
worldcup <- read_tsv('../data/worldcupplayerinfo_20140701.tsv', 
*                    col_types = list("X11" = col_skip(), "X12" = col_skip()))

worldcup
## # A tibble: 736 x 10
##    Group Country  Rank Jersey Position   Age Selections Club  Player
##    <chr> <chr>   <dbl>  <dbl> <chr>    <dbl>      <dbl> <chr> <chr> 
##  1 A     Brazil      3      1 Goalie      31          9 Bota~ Jeffe~
##  2 A     Brazil      3     12 Goalie      34         80 Toro~ Julio~
##  3 A     Brazil      3     22 Goalie      31          6 Atle~ Victor
##  4 A     Brazil      3      2 Defender    31         75 Barc~ Dani ~
##  5 A     Brazil      3     13 Defender    30         12 Baye~ Dante 
##  6 A     Brazil      3      4 Defender    27         36 Chel~ David~
##  7 A     Brazil      3     15 Defender    27          5 Napo~ Henri~
##  8 A     Brazil      3     23 Defender    32         72 Roma  Maicon
##  9 A     Brazil      3      6 Defender    26         31 Real~ Marce~
## 10 A     Brazil      3     14 Defender    32          9 Pari~ Maxwe~
## # ... with 726 more rows, and 1 more variable: Captain <chr>
```
…
