dplyr (continuación)
…
---

## arrange con group_by

- `arrange()` ignora la agrupación, a no ser que el parámetro `.by_group` sea `TRUE`

.pull-left[

```r
mpg %>%
  select(year, cty) %>%
  group_by(year) %>%
  arrange(cty)
## # A tibble: 234 x 2
## # Groups:   year [2]
##     year   cty
##    <int> <int>
##  1  2008     9
##  2  2008     9
##  3  2008     9
##  4  2008     9
##  5  2008     9
##  6  2008    11
##  7  2008    11
##  8  1999    11
##  9  2008    11
## 10  1999    11
## # ... with 224 more rows
```
]

.pull-right[

```r
mpg %>%
  select(year, cty) %>%
  group_by(year) %>%
  arrange(cty, .by_group = TRUE)
## # A tibble: 234 x 2
## # Groups:   year [2]
##     year   cty
##    <int> <int>
##  1  1999    11
##  2  1999    11
##  3  1999    11
##  4  1999    11
##  5  1999    11
##  6  1999    11
##  7  1999    11
##  8  1999    11
##  9  1999    11
## 10  1999    11
## # ... with 224 more rows
```
…
---

## mutate con group_by

Un `mutate()` sobre un data frame agrupado devuelve siempre otro data frame con el mismo número de filas que el original.

.pull-left[

```r
mpg %>%
  # sin group_by
  mutate(avg_cty = mean(cty)) %>%
  # ungroup no necesario
  select(cyl, cty, avg_cty)
## # A tibble: 234 x 3
##      cyl   cty avg_cty
##    <int> <int>   <dbl>
##  1     4    18    16.9
##  2     4    21    16.9
##  3     4    20    16.9
##  4     4    21    16.9
##  5     6    16    16.9
##  6     6    18    16.9
##  7     6    18    16.9
##  8     4    18    16.9
##  9     4    16    16.9
## 10     4    20    16.9
## # ... with 224 more rows
```
]

.pull-right[

```r
mpg %>%
  group_by(cyl) %>%
  mutate(avg_cty = mean(cty)) %>%
  ungroup() %>%
  select(cyl, cty, avg_cty)
## # A tibble: 234 x 3
##      cyl   cty avg_cty
##    <int> <int>   <dbl>
##  1     4    18    21.0
##  2     4    21    21.0
##  3     4    20    21.0
##  4     4    21    21.0
##  5     6    16    16.2
##  6     6    18    16.2
##  7     6    18    16.2
##  8     4    18    21.0
##  9     4    16    21.0
## 10     4    20    21.0
## # ... with 224 more rows
```
…
